Below it Detail of a New Post: 
Client Email : {{ author }}
title : {{ title }}
job_type : {{ job_type }}
moneytype : {{ moneytype }}
budget : {{ budget }}
years : {{ years }}
months : {{ months }}
days : {{ days }}
brief : {{ brief }}
deliverables : {{ deliverables }}